[
    {
        "plural": "Blog Items",
        "singular": "Blog Item",
        "supports": "array('title', 'editor', 'thumbnail', 'comments')",
        "fields": [
            {
                "field_slug": "blog_date",
                "field_proper": "Blog Date",
                "type": "input_date"
            },
            {
                "field_slug": "blog_categories",
                "field_proper": "Blog Categories",
                "field_feed": "listBlogCategories",
                "type": "input_checkbox_multi"
            },
            {
                "field_slug": "blog_tags",
                "field_proper": "Blog Tags",
                "field_feed": "listBlogTags",
                "type": "input_checkbox_multi"
            }
        ]
    },
    {
        "plural": "Blog Categories",
        "singular": "Blog Category",
        "supports": "array('title', 'editor', 'thumbnail')",
        "fields": []
    },
    {
        "plural": "Blog Tags",
        "singular": "Blog Tag",
        "supports": "array('title')",
        "fields": []
    },
    {
        "plural": "Tests",
        "singular": "Test",
        "supports": "array('title', 'editor', 'thumbnail')",
        "fields": [
            {
                "field_slug": "test_date2",
                "field_proper": "Sample Date2",
                "type": "input_date"
            },
            {
                "field_slug": "test_text",
                "field_proper": "Sample Text1",
                "type": "input_text"
            },
            {
                "field_slug": "test_text2",
                "field_proper": "Sample Text2",
                "type": "input_text"
            },
            {
                "field_slug": "test_date",
                "field_proper": "Sample Date",
                "type": "input_date"
            },
            {
                "field_slug": "test_color",
                "field_proper": "Sample Color",
                "field_colors": "array('rgb(0, 59, 168);','rgb(102, 153, 51);', 'rgb(53, 109, 211);', 'rgb(95, 136, 211);')",
                "type": "input_colorpicker"
            },
            {
                "field_slug": "test_color2",
                "field_proper": "Sample Color2",
                "field_colors": "array('rgb(0, 59, 168);','rgb(102, 153, 51);', 'rgb(53, 109, 211);', 'rgb(95, 136, 211);')",
                "type": "input_colorpicker"
            },
            {
                "field_slug": "test_editor",
                "field_proper": "Sample Editor",
                "type": "input_editor"
            },
            {
                "field_slug": "test_editor2",
                "field_proper": "Sample Editor2",
                "type": "input_editor"
            },
            {
                "field_slug": "test_checkbox_multi",
                "field_proper": "Sample Checkbox Multi",
                "field_feed": "listPages",
                "type": "input_checkbox_multi"
            },
            {
                "field_slug": "test_checkbox_multi2",
                "field_proper": "Sample Checkbox Multi2",
                "field_feed": "listPages",
                "type": "input_checkbox_multi"
            },
            {
                "field_slug": "test_radio",
                "field_proper": "Sample Radio",
                "field_feed": "listPages",
                "type": "input_radio"
            },
            {
                "field_slug": "test_radio2",
                "field_proper": "Sample Radio2",
                "field_feed": "listPages",
                "type": "input_radio"
            },
            {
                "field_slug": "test_select",
                "field_proper": "Sample Select",
                "field_feed": "listPages",
                "type": "input_select"
            },
            {
                "field_slug": "test_select2",
                "field_proper": "Sample Select2",
                "field_feed": "listPages",
                "type": "input_select"
            },
            {
                "field_slug": "test_checkbox_single",
                "field_proper": "Sample Checkbox Single",
                "field_text": "Sample Checkbox Single Check",
                "type": "input_checkbox_single"
            },
            {
                "field_slug": "test_checkbox_single2",
                "field_proper": "Sample Checkbox Single2",
                "field_text": "Sample Checkbox Single2 Check",
                "type": "input_checkbox_single"
            },
            {
                "field_slug": "test_focuspoint",
                "field_proper": "Sample FocusPoint",
                "type": "input_focuspoint"
            },
            {
                "field_slug": "test_focuspoint2",
                "field_proper": "Sample FocusPoint2",
                "type": "input_focuspoint"
            },
            {
                "field_slug": "test_hidden",
                "field_proper": "Sample Hidden",
                "type": "input_hidden"
            },
            {
                "field_slug": "test_hidden2",
                "field_proper": "Sample Hidden2",
                "type": "input_hidden"
            },
            {
                "field_slug": "test_featured_images",
                "field_proper": "Sample Featured Images",
                "type": "input_featured_images"
            },
            {
                "field_slug": "test_featured_images2",
                "field_proper": "Sample Featured Images2",
                "type": "input_featured_images"
            }
        ]
    },
    {
        "plural": "Sample People",
        "singular": "Sample Person",
        "supports": "array('title', 'editor', 'thumbnail')",
        "fields": [
            {
                "field_slug": "sample_date2",
                "field_proper": "Sample Date2",
                "type": "input_date"
            },
            {
                "field_slug": "sample_text",
                "field_proper": "Sample Text1",
                "type": "input_text"
            },
            {
                "field_slug": "sample_text2",
                "field_proper": "Sample Text2",
                "type": "input_text"
            },
            {
                "field_slug": "sample_date",
                "field_proper": "Sample Date",
                "type": "input_date"
            },
            {
                "field_slug": "sample_color",
                "field_proper": "Sample Color",
                "field_colors": "array('rgb(0, 59, 168);','rgb(102, 153, 51);', 'rgb(53, 109, 211);', 'rgb(95, 136, 211);')",
                "type": "input_colorpicker"
            },
            {
                "field_slug": "sample_color2",
                "field_proper": "Sample Color2",
                "field_colors": "array('rgb(0, 59, 168);','rgb(102, 153, 51);', 'rgb(53, 109, 211);', 'rgb(95, 136, 211);')",
                "type": "input_colorpicker"
            },
            {
                "field_slug": "sample_editor",
                "field_proper": "Sample Editor",
                "type": "input_editor"
            },
            {
                "field_slug": "sample_editor2",
                "field_proper": "Sample Editor2",
                "type": "input_editor"
            },
            {
                "field_slug": "sample_checkbox_multi",
                "field_proper": "Sample Checkbox Multi",
                "field_feed": "listPages",
                "type": "input_checkbox_multi"
            },
            {
                "field_slug": "sample_checkbox_multi2",
                "field_proper": "Sample Checkbox Multi2",
                "field_feed": "listPages",
                "type": "input_checkbox_multi"
            },
            {
                "field_slug": "sample_radio",
                "field_proper": "Sample Radio",
                "field_feed": "listPages",
                "type": "input_radio"
            },
            {
                "field_slug": "sample_radio2",
                "field_proper": "Sample Radio2",
                "field_feed": "listPages",
                "type": "input_radio"
            },
            {
                "field_slug": "sample_select",
                "field_proper": "Sample Select",
                "field_feed": "listPages",
                "type": "input_select"
            },
            {
                "field_slug": "sample_select2",
                "field_proper": "Sample Select2",
                "field_feed": "listPages",
                "type": "input_select"
            },
            {
                "field_slug": "sample_checkbox_single",
                "field_proper": "Sample Checkbox Single",
                "field_text": "Sample Checkbox Single Check",
                "type": "input_checkbox_single"
            },
            {
                "field_slug": "sample_checkbox_single2",
                "field_proper": "Sample Checkbox Single2",
                "field_text": "Sample Checkbox Single2 Check",
                "type": "input_checkbox_single"
            },
            {
                "field_slug": "sample_focuspoint",
                "field_proper": "Sample FocusPoint",
                "type": "input_focuspoint"
            },
            {
                "field_slug": "sample_focuspoint2",
                "field_proper": "Sample FocusPoint2",
                "type": "input_focuspoint"
            },
            {
                "field_slug": "sample_hidden",
                "field_proper": "Sample Hidden",
                "type": "input_hidden"
            },
            {
                "field_slug": "sample_hidden2",
                "field_proper": "Sample Hidden2",
                "type": "input_hidden"
            },
            {
                "field_slug": "sample_featured_images",
                "field_proper": "Sample Featured Images",
                "type": "input_featured_images"
            },
            {
                "field_slug": "sample_featured_images2",
                "field_proper": "Sample Featured Images2",
                "type": "input_featured_images"
            }
        ]
    }
]